<svg width="20" height="20" viewBox="0 0 20 20" fill="none" xmlns="http://www.w3.org/2000/svg">
<path d="M0 10C0 4.48 4.48 0 10 0C15.52 0 20 4.48 20 10C20 15.52 15.52 20 10 20C4.48 20 0 15.52 0 10ZM10 17C10 17 10 13.31 10 10C10 6.69 10 3 10 3C6.69 3 3 6.69 3 10C3 13.31 6.69 17 10 17Z" fill="#484848"/>
</svg>
